<?xml version="1.0" encoding="iso-8859-1"?>
<!-- Generator: Adobe Illustrator 19.1.0, SVG Export Plug-In . SVG Version: 6.00 Build 0)  -->
<svg version="1.1" xmlns="http://www.w3.org/2000/svg" xmlns:xlink="http://www.w3.org/1999/xlink" x="0px" y="0px"
	 viewBox="0 0 38.469 36.762" style="enable-background:new 0 0 38.469 36.762;" xml:space="preserve">
<g id="donate">
	<g>
		<path style="fill:#262729;" d="M38.014,9.744c-0.227-0.81-0.519-1.535-0.854-2.197c-2.89-7.8-12.251-10.239-18.124-4.037
			C12.453-3.442,1.479,0.457,0.159,10.601c-1.347,10.353,5.975,16.704,16.674,24.837v0.004c0.001-0.001,0.002-0.001,0.003-0.002
			c0.001,0.001,0.002,0.001,0.003,0.002l0.001-0.005c0.515-0.392,1.033-0.778,1.552-1.162c0.613,0.582,1.229,1.161,1.835,1.747
			l0.764,0.739l0.764-0.739c1.012-0.98,2.04-1.951,3.061-2.917C32.843,25.521,40.425,18.357,38.014,9.744z M23.307,31.51
			c-0.772,0.729-1.546,1.462-2.316,2.199c-0.264-0.253-0.531-0.503-0.796-0.756c-0.507-0.482-1.014-0.965-1.521-1.444
			c-7.53-7.117-14.643-13.838-12.589-21.172c1.219-4.354,4.566-5.9,7.328-5.9c0.031,0,0.061,0,0.092,0.001
			c2.627,0.033,5.609,1.631,6.616,4.607l0.916,2.106l0.778-2.106c0.961-3.067,4.034-4.574,6.661-4.607
			c2.803-0.057,6.188,1.497,7.421,5.899c1.704,6.087-2.909,11.752-8.831,17.571C25.853,29.101,24.588,30.299,23.307,31.51z"/>
		<g>
			<path style="fill:#262729;" d="M21.581,13.545c0.581,0,1.183,0.075,1.806,0.226c0.623,0.151,1.172,0.414,1.645,0.791
				l-1.548,1.887c-0.258-0.226-0.554-0.39-0.887-0.492c-0.333-0.102-0.672-0.163-1.016-0.185v2.564l1.548,0.452
				c0.71,0.215,1.277,0.568,1.702,1.057c0.425,0.49,0.637,1.11,0.637,1.863c0,0.57-0.102,1.07-0.306,1.5
				c-0.205,0.431-0.484,0.796-0.839,1.097c-0.355,0.301-0.769,0.538-1.242,0.71c-0.473,0.172-0.973,0.285-1.5,0.339v1.129h-1.065
				v-1.129c-0.709,0-1.417-0.097-2.121-0.29c-0.704-0.194-1.325-0.532-1.863-1.017l1.71-1.919c0.28,0.344,0.618,0.589,1.016,0.734
				c0.398,0.145,0.817,0.234,1.258,0.266v-2.726l-1.177-0.355c-0.817-0.258-1.439-0.621-1.863-1.088
				c-0.425-0.468-0.637-1.11-0.637-1.928c0-0.505,0.102-0.962,0.306-1.371c0.204-0.409,0.476-0.758,0.814-1.049
				c0.339-0.29,0.731-0.526,1.177-0.709c0.446-0.182,0.906-0.301,1.379-0.355v-1.129h1.065V13.545z M20.517,15.82
				c-0.301,0.065-0.57,0.178-0.807,0.339c-0.236,0.161-0.355,0.414-0.355,0.758c0,0.247,0.049,0.441,0.146,0.58
				c0.096,0.14,0.209,0.25,0.339,0.331c0.129,0.081,0.258,0.137,0.387,0.169c0.129,0.032,0.226,0.059,0.29,0.081V15.82z
				 M21.581,23.094c0.161-0.032,0.325-0.077,0.492-0.137c0.167-0.058,0.315-0.137,0.444-0.234c0.129-0.096,0.234-0.212,0.315-0.347
				c0.08-0.135,0.121-0.293,0.121-0.476c0-0.172-0.03-0.317-0.089-0.436c-0.06-0.118-0.137-0.218-0.234-0.299
				c-0.096-0.08-0.209-0.15-0.339-0.209c-0.129-0.059-0.263-0.116-0.403-0.169l-0.306-0.113V23.094z"/>
		</g>
	</g>
</g>
<g id="Layer_1">
</g>
</svg>
