<?xml version="1.0" encoding="utf-8"?>
<!-- Generator: Adobe Illustrator 19.1.0, SVG Export Plug-In . SVG Version: 6.00 Build 0)  -->
<svg version="1.1" id="Layer_1" xmlns="http://www.w3.org/2000/svg" xmlns:xlink="http://www.w3.org/1999/xlink" x="0px" y="0px"
	 viewBox="253.3 -139.6 430.8 424.8" style="enable-background:new 253.3 -139.6 430.8 424.8;" xml:space="preserve">
<style type="text/css">
	.st0{fill:#0054A6;}
	.st1{fill:#77777A;}
</style>
<g id="Layer_2">
	<g>
		<polygon class="st0" points="432.3,284.3 432.3,244.2 465.4,244.2 465.4,249.3 437.9,249.3 437.9,260.9 462.3,260.9 462.3,266 
			437.9,266 437.9,279.1 465.7,279.1 465.7,284.3 		"/>
		<path class="st0" d="M317.2,281.1c-3,2.4-6.4,3.6-12.4,3.6c-12.3,0-17.3-5.3-17.3-15.8v-24.6h5.7v24.6c0,3.6,1,6.3,3,8.1
			c2,1.8,4.2,2.6,8.6,2.6c4.4,0,6.6-0.9,8.7-2.7c2-1.7,3-4.3,3-7.9v-24.8h5.7V269C322.1,274.4,320.5,278.4,317.2,281.1L317.2,281.1z
			"/>
		<path class="st0" d="M386.2,281.1c-3,2.4-6.4,3.6-12.4,3.6c-12.3,0-17.3-5.3-17.3-15.8v-24.6h5.7v24.6c0,3.6,1,6.3,3,8.1
			c2,1.8,4.2,2.6,8.6,2.6c4.4,0,6.6-0.9,8.7-2.7c2-1.7,3-4.3,3-7.9v-24.8h5.7V269C391.2,274.4,389.5,278.4,386.2,281.1L386.2,281.1z
			"/>
		<polygon class="st0" points="342.2,249.3 342.2,284.3 336.5,284.3 336.5,249.3 324.4,249.3 324.4,244.2 354.2,244.2 354.2,249.3 
					"/>
		<path class="st0" d="M414.8,249.3h-15.1v13h14.1c3.1,0,5.7-0.5,7.5-1.6c2-1.2,3.1-2.9,3.1-5.2
			C424.4,251.4,421.2,249.3,414.8,249.3L414.8,249.3z M424.9,264.7c3.1,1.9,4.6,4.8,4.6,8.7v10.8h-5.7v-10.6c0-4.1-3.2-6.1-9.7-6.1
			h-14.4v16.8H394v-40.1h20.6c10.3,0,15.4,3.7,15.4,11.1C430.1,259.5,428.3,262.7,424.9,264.7L424.9,264.7z"/>
		<path class="st1" d="M535.3,249.3h-15.1v13h14.1c3.2,0,5.7-0.5,7.5-1.6c2.1-1.2,3.1-2.9,3.1-5.2
			C544.9,251.4,541.7,249.3,535.3,249.3L535.3,249.3z M545.4,264.7c3.1,1.9,4.6,4.8,4.6,8.7v10.8h-5.7v-10.6c0-4.1-3.2-6.1-9.7-6.1
			h-14.4v16.8h-5.7v-40.1h20.6c10.3,0,15.4,3.7,15.4,11.1C550.6,259.5,548.9,262.7,545.4,264.7L545.4,264.7z"/>
		<polygon class="st1" points="555.5,284.3 555.5,244.2 561.1,244.2 561.1,284.3 		"/>
		<polygon class="st1" points="586.8,284.3 582.6,284.3 563.2,244.2 569.2,244.2 584.6,276 599.6,244.2 605.7,244.2 		"/>
		<path class="st1" d="M506.6,249.6c-3.7-3.6-9-5.4-16-5.4h-17.4v5.1h17.4c5.4,0,9.3,1.3,11.9,3.9c2.5,2.5,3.7,6.2,3.7,11.1
			c0,4.9-1.5,8.6-4.6,11.1c-3.1,2.5-7.4,3.8-13.1,3.8h-9.7v-21h-5.7v26.1h15.2c7.1,0,12.7-1.7,16.8-5c4.4-3.5,6.7-8.5,6.7-14.9
			C511.9,258,510.1,253.1,506.6,249.6L506.6,249.6z"/>
		<g>
			<polygon class="st0" points="281.5,266 281.5,260.9 265.3,260.9 265.3,266 			"/>
			<polygon class="st0" points="285.1,249.3 285.1,244.2 254.1,244.2 254.1,284.3 259.8,284.3 259.8,249.3 			"/>
		</g>
		<polygon class="st1" points="607.4,285.4 607.4,244.2 641.6,244.2 641.6,249.5 613.3,249.5 613.3,261.3 638.3,261.3 638.3,266.6 
			613.3,266.6 613.3,280.1 641.9,280.1 641.9,285.4 		"/>
		<path class="st1" d="M678.8,285.2l-27.9-32.1v32.1h-5.8V244h5.2c3.5,4.2,8.2,9.6,14.1,16.2c7.1,7.9,11.7,13.1,13.9,15.6V244h5.8
			v41.3L678.8,285.2L678.8,285.2L678.8,285.2z"/>
	</g>
</g>
<g id="Layer_1_1_">
	<g>
		<path class="st1" d="M253.5,128.4c20.5-9.7,73-42,302.9-26.2c-141.5,0.7-209.5,16.1-216.2,87.9h-86.9L253.5,128.4z"/>
		<path class="st0" d="M273.3-88.4c-7.3,0-7.6,0.3-7.6,4.8l0.3,44.5l-12.8,0v-100.5h12.4v40.2c0,4.7,0.3,4.8,7.6,4.8h43.3
			c7.3,0,7.6-0.1,7.6-4.8v-40.6h12.4v100.8h-12.4v-44.5c0-4.5-0.3-4.8-7.6-4.8C316.6-88.4,273.3-88.4,273.3-88.4z"/>
		<path class="st0" d="M515.6-38.7c-0.3,0.9-1.2,1.7-2.9,1.7c-1.8-2.6-6.2-7.9-19.4-22.9l-35.1-40c-4.1-4.7-12.8-17.1-16-20.4h-0.6
			c-0.6,1.8-0.4,5.3-0.4,9.8l0,71.5h-7.8l-0.1-100.6l9.1,0.1c0,0,20.9,27.5,25.9,33.1l14.7,16.5c10.5,11.7,17.9,20.1,25,27.4h-1.3
			c0.6-0.8,0.6-3.2,0.6-6.4v-32.4c0-7.1,0-38.3,0-38.3h8.2C515.6-139.7,515.2-42.7,515.6-38.7z"/>
		<path class="st0" d="M536.3-139.9c21.5,0,39.5-1.2,48,4.2c6.7,4.2,12.2,11,12.2,21.6c0,14.4-11.4,22.3-18.9,25.3
			c-0.8,0.9,0,2.4,0.8,3.6c12.1,19.5,20.1,31.6,30.4,40.3c2.6,2.3,10.5,4.2,10.5,4.2l0,2.1c0,0-3.7,0.8-6.5,0.8
			c-12.9,0-20.6-3.8-31.3-19.1c-3.9-5.6-10.1-16-14.8-22.9c-2.3-3.3-4.7-4.9-10.8-4.9c-6.8,0-7.1,0.2-7.1,3.3v41.9h-12.4
			L536.3-139.9z M548.7-94.9c0,2.7,0,4.4,0.5,5c0.5,0.5,2.7,0.8,10.5,0.8c5.5,0,11.2-0.6,15.6-3.9c4.1-3.2,7.6-8.5,7.6-18.8
			c0-12-7.4-23.3-24.2-23.3c-9.4,0-9.8,0.6-9.8,4.9L548.7-94.9L548.7-94.9z"/>
		<path class="st0" d="M462.7-16.4c25.2,0,46.3-1.4,56.3,4.9c7.8,4.9,14.3,12.9,14.3,25.3c0,16.9-13.3,26.1-22.2,29.6
			c-0.9,1.1,0,2.8,0.9,4.3c14.2,22.9,23.6,37.1,35.7,47.2c3,2.7,23.4,4.1,23.4,4.1l0,2.5c0,0-15.1,0.9-18.4,0.9
			c-15.1,0-24.5-3.6-37.1-21.5c-4.6-6.6-11.9-18.8-17.4-26.8c-2.7-3.9-5.5-5.7-12.6-5.7c-8,0-8.3,0.2-8.3,3.9v49.1h-14.6L462.7-16.4
			L462.7-16.4z M477.3,36.3c0,3.2,0,5.1,0.5,5.9c0.5,0.5,3.2,0.9,12.3,0.9c6.4,0,13.1-0.7,18.3-4.6c4.8-3.7,8.9-9.9,8.9-22
			c0-14-8.7-27.3-28.4-27.3c-11,0-11.5,0.7-11.5,5.7L477.3,36.3L477.3,36.3z"/>
		<path class="st0" d="M268.6,34.5c0,4.8,0.5,4.8,5.9,4.8h12.1c7.3,0,17.6,0,17.6,0v6.3c0,0-10.8,0-17.6,0h-12.2
			c-5.4,0-5.9,0.2-5.9,4.8v52h-15l-0.1-118.8h65v7.7c0,0-26.1,0-33.6,0H274c-5.4,0-5.4,0.4-5.4,7.1V34.5z"/>
		<path class="st0" d="M378.1,141.5c5.8-4.5,13.3-6.8,21.6-6.8c4.3,0,10.4,0.9,14.1,1.9c1,0.2,2,0.7,2,0.7l-2,1.9
			c-2.6-0.4-7.4-2-15.2-2c-12.2,0-22.6,7.8-22.6,24.3c0,16.8,10.6,26,23.7,26c10.3,0,16.7-11.4,16.7-11.4l2.1,0.3
			c0,0-5.8,11.4-6.6,11.7c-1.8,0.6-7.5,1.8-12.6,1.8c-7.2,0-14.1-1.4-19.9-5.4c-6.4-4.4-11.3-11.7-11.3-22
			C368,153.8,372,146.2,378.1,141.5z"/>
		<path class="st0" d="M421.3,162.9c0-16,12-28.2,28.4-28.2c18.5,0,27.7,13.3,27.7,27.4c0,16.1-12.3,27.9-27.7,27.9
			C432,189.9,421.3,177.2,421.3,162.9z M469.5,164.5c0-13.2-5.8-27.4-21.1-27.4c-8.3,0-19.1,5.7-19.1,23.2
			c0,11.8,5.8,27.1,21.5,27.1C460.4,187.5,469.5,180.3,469.5,164.5z"/>
		<path class="st0" d="M642.2,180.5c0,3.2-0.6,7-2.1,7.4c-4.2,1.1-10,2.1-14.3,2.1c-9.5,0-18.2-2.6-24.3-8.9
			c-4.8-4.8-7.4-11.1-7.4-18.1c0-6.8,2.2-13.6,7.2-18.9c5.3-5.6,13.3-9.3,25.3-9.3c4.5,0,8.8,0.9,10.1,1.2c1.5,0.3,5,0.7,5,0.7
			l1.2,11.6l-2.2,0.2c-2.2-8.6-8.2-11.3-16.4-11.3c-15.5,0-22.3,11-22.3,23c0,15.3,7.9,27.4,24,27.4c5,0,7.9-1,8.8-2.4
			c0.4-0.6,0.8-2,0.8-4.5v-15.2l6.5,0V180.5z"/>
		<path class="st0" d="M523.3,136.2h6.6v39.5c0,5-0.3,8,1.4,8.5c1.2,0.3,22.6,0.1,22.6,0.1v4.4c0,0-11.7-0.1-19.9-0.1h-7.4
			c-3.4,0-3.4-3.6-3.4-12L523.3,136.2L523.3,136.2z"/>
		<path class="st0" d="M320.7,44.2c0-35.7,26.7-62.9,63.5-62.9c41.2,0,61.9,29.8,61.9,61.1c0,36-27.5,62.2-61.9,62.2
			C344.6,104.7,320.7,76.3,320.7,44.2z M428.3,48c0-29.4-13-61.2-47.1-61.2c-18.5,0-42.6,12.7-42.6,51.7c0,26.4,12.8,60.6,48,60.6
			C407.9,99.2,428.3,83.1,428.3,48z"/>
		<path class="st0" d="M567.8,6.9c0-12.5,0.5-23.4,0.5-23.4s17-0.3,32.2-0.3c15,0,27.6,1.1,39.2,5.4c24.1,8.7,36.2,29.1,36.2,52.6
			c0,22.6-10.9,42.1-31.2,53.1c-11.6,6.2-26.2,8.6-39.9,8.6c-11.4,0-30.2-1.4-36.4-1.4c0,0-0.5-8.1-0.5-26.8L567.8,6.9L567.8,6.9z
			 M582.5,70.5c0,9.5,0.5,15.2,3.6,19.4c3.9,5.5,10.7,7.3,21.9,7.3c34.6,0,50.1-22.6,50.1-55.8c0-19.6-9.5-52.8-56.2-52.8
			c-10.5,0-16.2,1.4-17.6,2.5c-1.4,1.1-1.8,5.5-1.8,13.6L582.5,70.5L582.5,70.5z"/>
		<path class="st0" d="M670.1-139.7c0,0-7.5,16.8-8.3,18.3c-5.5,11.1-8.6,22.9-14.4,33.2c-5.8-10.3-8.9-22.1-14.4-33.2
			c-0.8-1.5-8.3-18.3-8.3-18.3H611L636.2-89c4.4,8.5,4.8,10.4,4.8,18.8v30.7h6.4h6.4v-30.7c0-8.3,0.5-10.3,4.8-18.8l25.3-50.7
			L670.1-139.7L670.1-139.7z"/>
		<path class="st0" d="M387.4-46h-10.9c-4.5,0-4.5-0.3-4.5-6.1v-32.4c0-4.2,0.5-4.2,5-4.2h8.8c6.4,0,19.5,0,19.5,0l0-2.7l0-2.7
			c0,0-13.1,0-19.5,0H377c-4.5,0-5,0-5-4.2v-28.6c0-5.8,0-6.1,4.5-6.1h10.9c6.6,0,27.5,0.1,27.5,0.1l0-6.8h-55.1l0,48.3l0,52h55.1
			l0-6.8C414.9-46.1,394-46,387.4-46z"/>
		<path class="st0" d="M666.9,184.4h-5.6c-2.3,0-2.3-0.2-2.3-3.1v-16.2c0-2.2,0.2-2.2,2.6-2.2h4.5c3.3,0,10,0,10,0v-1.4v-1.4
			c0,0-6.8,0-10,0h-4.5c-2.3,0-2.6,0-2.6-2.2v-14.4c0-3,0-3.1,2.3-3.1h5.6c3.4,0,14.1,0,14.1,0l0-4.3h-28.4l0,25.4l0,27.1H681l0-4.3
			C681,184.3,670.3,184.4,666.9,184.4z"/>
		<path class="st0" d="M575.5,184.4h-5.6c-2.3,0-2.3-0.2-2.3-3.1v-16.2c0-2.2,0.2-2.2,2.6-2.2h4.5c3.3,0,10,0,10,0v-1.4v-1.4
			c0,0-6.8,0-10,0h-4.5c-2.3,0-2.6,0-2.6-2.2v-14.4c0-3,0-3.1,2.3-3.1h5.6c3.4,0,14.1,0,14.1,0l0-4.3h-28.4l0,25.4l0,27.1h28.4
			l0-4.3C589.7,184.3,579,184.4,575.5,184.4z"/>
		<path class="st0" d="M484.9,136.2h6.6v41c0,5-0.3,6.5,1.4,7c1.2,0.3,22.6,0.1,22.6,0.1v4.4c0,0-11.7-0.1-19.9-0.1h-7.4
			c-3.4,0-3.4-3.6-3.4-12L484.9,136.2L484.9,136.2z"/>
	</g>
</g>
</svg>
