<?xml version="1.0" encoding="utf-8"?>
<!-- Generator: Adobe Illustrator 19.1.0, SVG Export Plug-In . SVG Version: 6.00 Build 0)  -->
<svg version="1.1" id="Layer_1" xmlns="http://www.w3.org/2000/svg" xmlns:xlink="http://www.w3.org/1999/xlink" x="0px" y="0px"
	 viewBox="75.6 38.3 430.3 423.9" style="enable-background:new 75.6 38.3 430.3 423.9;" xml:space="preserve">
<style type="text/css">
	.st0{fill:#FFFFFF;}
</style>
<g>
	<polygon class="st0" points="254.3,462.3 254.3,422.2 287.4,422.2 287.4,427.3 259.9,427.3 259.9,438.9 284.3,438.9 284.3,444 
		259.9,444 259.9,457.1 287.7,457.1 287.7,462.3 	"/>
	<path class="st0" d="M139.2,459.1c-3,2.4-6.4,3.6-12.4,3.6c-12.3,0-17.3-5.3-17.3-15.8v-24.6h5.7v24.6c0,3.6,1,6.3,3,8.1
		c2,1.8,4.2,2.6,8.6,2.6c4.4,0,6.6-0.9,8.7-2.7c2-1.6,3-4.3,3-7.9v-24.8h5.7V447C144.1,452.4,142.5,456.4,139.2,459.1L139.2,459.1z"
		/>
	<path class="st0" d="M208.2,459.1c-3,2.4-6.4,3.6-12.4,3.6c-12.3,0-17.4-5.3-17.4-15.8v-24.6h5.7v24.6c0,3.6,1,6.3,3,8.1
		c2,1.8,4.2,2.6,8.6,2.6c4.4,0,6.6-0.9,8.7-2.7c2-1.6,3-4.3,3-7.9v-24.8h5.7V447C213.2,452.4,211.5,456.4,208.2,459.1L208.2,459.1z"
		/>
	<polygon class="st0" points="164.2,427.3 164.2,462.3 158.5,462.3 158.5,427.3 146.4,427.3 146.4,422.2 176.2,422.2 176.2,427.3 	
		"/>
	<path class="st0" d="M236.8,427.3h-15.1v13h14.1c3.1,0,5.7-0.5,7.5-1.6c2.1-1.2,3.1-2.9,3.1-5.2
		C246.4,429.4,243.2,427.3,236.8,427.3L236.8,427.3z M246.9,442.7c3.1,1.9,4.6,4.8,4.6,8.8v10.8h-5.7v-10.6c0-4.1-3.2-6.1-9.7-6.1
		h-14.4v16.8H216v-40.1h20.6c10.3,0,15.4,3.7,15.4,11.1C252.1,437.5,250.4,440.6,246.9,442.7L246.9,442.7z"/>
	<path class="st0" d="M357.3,427.3h-15.1v13h14.1c3.1,0,5.7-0.5,7.5-1.6c2-1.2,3.1-2.9,3.1-5.2C366.9,429.4,363.7,427.3,357.3,427.3
		L357.3,427.3z M367.4,442.7c3.1,1.9,4.6,4.8,4.6,8.8v10.8h-5.7v-10.6c0-4.1-3.2-6.1-9.7-6.1h-14.4v16.8h-5.7v-40.1h20.6
		c10.3,0,15.4,3.7,15.4,11.1C372.6,437.5,370.9,440.6,367.4,442.7L367.4,442.7z"/>
	<polygon class="st0" points="377.5,462.3 377.5,422.2 383.1,422.2 383.1,462.3 	"/>
	<polygon class="st0" points="408.8,462.3 404.6,462.3 385.2,422.2 391.2,422.2 406.6,454 421.6,422.2 427.7,422.2 	"/>
	<path class="st0" d="M328.6,427.6c-3.7-3.6-9-5.4-16-5.4h-17.4v5.1l17.4,0c5.4,0,9.3,1.3,11.9,3.9c2.5,2.5,3.7,6.2,3.7,11
		c0,4.9-1.5,8.6-4.6,11.1c-3,2.5-7.4,3.8-13.1,3.8h-9.7v-21h-5.7v26.1h15.2c7.1,0,12.7-1.7,16.8-5c4.5-3.5,6.7-8.5,6.7-15
		C333.9,436,332.1,431.1,328.6,427.6L328.6,427.6z"/>
	<g>
		<polygon class="st0" points="103.5,444 103.5,438.9 87.3,438.9 87.3,444 		"/>
		<polygon class="st0" points="107.1,427.3 107.1,422.2 76.1,422.2 76.1,462.3 81.8,462.3 81.8,427.3 		"/>
	</g>
	<polygon class="st0" points="429.4,463.4 429.4,422.2 463.6,422.2 463.6,427.5 435.3,427.5 435.3,439.4 460.3,439.4 460.3,444.6 
		435.3,444.6 435.3,458.1 463.9,458.1 463.9,463.4 	"/>
	<path class="st0" d="M500.8,463.2l-27.9-32.1v32.1h-5.9V422h5.2c3.5,4.2,8.2,9.6,14.1,16.2c7.1,7.9,11.7,13.1,13.9,15.6V422h5.9
		v41.3L500.8,463.2L500.8,463.2z"/>
</g>
<g>
	<path class="st0" d="M75.5,306.4c20.5-9.7,73-42,302.9-26.3c-141.5,0.7-209.5,16.1-216.2,87.9H75.3L75.5,306.4z"/>
	<path class="st0" d="M95.3,89.6c-7.3,0-7.6,0.3-7.6,4.8l0.3,44.5l-12.8,0V38.5h12.4v40.2c0,4.7,0.3,4.8,7.6,4.8h43.3
		c7.3,0,7.6-0.2,7.6-4.8V38.1h12.4v100.8h-12.4V94.4c0-4.5-0.3-4.8-7.6-4.8C138.6,89.6,95.3,89.6,95.3,89.6z"/>
	<path class="st0" d="M337.6,139.3c-0.3,0.9-1.2,1.7-2.9,1.7c-1.8-2.6-6.2-7.9-19.4-22.9l-35.1-40c-4.1-4.7-12.8-17.1-16-20.4h-0.7
		c-0.6,1.8-0.4,5.3-0.4,9.8l0,71.5h-7.8l-0.1-100.6l9.1,0c0,0,20.9,27.5,25.9,33.1l14.7,16.5c10.5,11.7,17.9,20.1,25,27.4h-1.3
		c0.6-0.8,0.6-3.2,0.6-6.4V76.6c0-7.1,0-38.3,0-38.3h8.2C337.6,38.3,337.2,135.3,337.6,139.3z"/>
	<path class="st0" d="M358.3,38.1c21.5,0,39.5-1.2,48,4.2c6.7,4.2,12.2,11,12.2,21.6c0,14.4-11.4,22.3-18.9,25.3
		c-0.8,0.9,0,2.4,0.8,3.6c12.1,19.5,20.1,31.6,30.4,40.3c2.6,2.3,10.5,4.2,10.5,4.2l0,2.1c0,0-3.7,0.8-6.5,0.8
		c-12.9,0-20.6-3.8-31.3-19.1c-3.9-5.6-10.1-16.1-14.8-22.9c-2.3-3.3-4.7-4.8-10.8-4.8c-6.8,0-7.1,0.2-7.1,3.3v41.9h-12.4
		L358.3,38.1z M370.7,83.1c0,2.7,0,4.4,0.5,5c0.5,0.5,2.7,0.8,10.5,0.8c5.5,0,11.2-0.6,15.6-3.9c4.1-3.2,7.6-8.5,7.6-18.8
		c0-12-7.4-23.3-24.2-23.3c-9.4,0-9.8,0.6-9.8,4.8L370.7,83.1L370.7,83.1z"/>
	<path class="st0" d="M284.7,161.6c25.2,0,46.3-1.4,56.3,4.9c7.8,4.9,14.3,12.9,14.3,25.3c0,16.9-13.3,26.1-22.2,29.6
		c-0.9,1.1,0,2.8,0.9,4.3c14.2,22.9,23.6,37.1,35.7,47.2c3,2.7,23.4,4.1,23.4,4.1l0,2.5c0,0-15.1,0.9-18.4,0.9
		c-15.1,0-24.5-3.6-37.1-21.5c-4.6-6.6-11.9-18.8-17.4-26.8c-2.7-3.9-5.5-5.7-12.6-5.7c-8,0-8.3,0.2-8.3,3.9v49.1h-14.6L284.7,161.6
		L284.7,161.6z M299.3,214.3c0,3.2,0,5.1,0.5,5.9c0.5,0.5,3.2,0.9,12.3,0.9c6.4,0,13.1-0.7,18.3-4.6c4.8-3.7,8.9-9.9,8.9-22
		c0-14-8.7-27.3-28.4-27.3c-11,0-11.5,0.7-11.5,5.7V214.3L299.3,214.3z"/>
	<path class="st0" d="M90.6,212.5c0,4.8,0.5,4.8,5.9,4.8h12.2c7.3,0,17.6,0,17.6,0v6.3c0,0-10.8,0-17.6,0H96.5
		c-5.4,0-5.9,0.2-5.9,4.8v52h-15l-0.1-118.8h65v7.7c0,0-26.1,0-33.6,0H96c-5.4,0-5.4,0.4-5.4,7.1V212.5z"/>
	<path class="st0" d="M200.1,319.5c5.8-4.5,13.3-6.8,21.6-6.8c4.3,0,10.4,0.9,14.1,1.9c1,0.2,2,0.7,2,0.7l-2,1.9
		c-2.6-0.4-7.4-2-15.2-2c-12.2,0-22.6,7.8-22.6,24.3c0,16.8,10.6,26,23.7,26c10.3,0,16.7-11.4,16.7-11.4l2.1,0.3
		c0,0-5.8,11.4-6.6,11.7c-1.8,0.6-7.5,1.8-12.6,1.8c-7.2,0-14.1-1.4-19.9-5.4c-6.4-4.4-11.3-11.7-11.3-22
		C190,331.8,194,324.2,200.1,319.5z"/>
	<path class="st0" d="M243.3,340.9c0-16,12-28.2,28.4-28.2c18.5,0,27.7,13.3,27.7,27.4c0,16.1-12.3,27.9-27.7,27.9
		C254,367.9,243.3,355.2,243.3,340.9z M291.5,342.5c0-13.2-5.8-27.4-21.1-27.4c-8.3,0-19.1,5.7-19.1,23.2c0,11.8,5.8,27.1,21.5,27.1
		C282.4,365.5,291.5,358.3,291.5,342.5z"/>
	<path class="st0" d="M464.2,358.5c0,3.2-0.6,7-2.1,7.4c-4.2,1.1-10,2.1-14.3,2.1c-9.5,0-18.2-2.6-24.4-8.9
		c-4.8-4.8-7.4-11.1-7.4-18.1c0-6.8,2.2-13.6,7.2-18.9c5.4-5.6,13.3-9.3,25.3-9.3c4.5,0,8.8,0.9,10.1,1.2c1.5,0.3,5,0.7,5,0.7
		l1.2,11.6l-2.2,0.2c-2.2-8.6-8.2-11.3-16.4-11.3c-15.5,0-22.3,11-22.3,23c0,15.3,7.9,27.4,24,27.4c5,0,7.9-1,8.8-2.4
		c0.4-0.6,0.8-2,0.8-4.5v-15.2l6.5,0V358.5z"/>
	<path class="st0" d="M345.3,314.2h6.5v39.5c0,5-0.3,8,1.4,8.5c1.2,0.3,22.6,0.1,22.6,0.1v4.4c0,0-11.7-0.1-19.9-0.1h-7.4
		c-3.4,0-3.4-3.6-3.4-12L345.3,314.2L345.3,314.2L345.3,314.2z"/>
	<path class="st0" d="M142.7,222.3c0-35.7,26.7-62.9,63.5-62.9c41.2,0,61.9,29.8,61.9,61.1c0,36-27.5,62.2-61.9,62.2
		C166.6,282.7,142.7,254.3,142.7,222.3z M250.3,226c0-29.4-13-61.2-47.1-61.2c-18.5,0-42.6,12.7-42.6,51.7c0,26.4,12.8,60.6,48,60.6
		C229.9,277.2,250.3,261.1,250.3,226z"/>
	<path class="st0" d="M389.8,184.9c0-12.5,0.5-23.4,0.5-23.4s17-0.3,32.2-0.3c15,0,27.6,1.1,39.2,5.4c24.1,8.7,36.2,29.1,36.2,52.6
		c0,22.6-10.9,42.1-31.2,53.1c-11.6,6.2-26.2,8.6-39.9,8.6c-11.4,0-30.2-1.4-36.4-1.4c0,0-0.5-8.1-0.5-26.8L389.8,184.9L389.8,184.9
		L389.8,184.9z M404.5,248.5c0,9.5,0.5,15.2,3.6,19.4c3.9,5.5,10.7,7.3,21.9,7.3c34.6,0,50.1-22.6,50.1-55.8
		c0-19.6-9.5-52.8-56.2-52.8c-10.5,0-16.2,1.4-17.6,2.5s-1.8,5.5-1.8,13.6L404.5,248.5L404.5,248.5z"/>
	<path class="st0" d="M492.1,38.3c0,0-7.5,16.8-8.3,18.3c-5.5,11.1-8.6,22.9-14.4,33.2c-5.8-10.3-8.9-22.2-14.4-33.2
		c-0.8-1.5-8.3-18.3-8.3-18.3H433L458.2,89c4.4,8.5,4.8,10.4,4.8,18.8v30.7h6.4h6.4v-30.7c0-8.3,0.5-10.3,4.8-18.8l25.3-50.7
		L492.1,38.3L492.1,38.3z"/>
	<path class="st0" d="M209.4,132h-10.9c-4.5,0-4.5-0.3-4.5-6.1V93.6c0-4.2,0.4-4.2,5-4.2h8.8c6.4,0,19.5,0,19.5,0l0-2.7l0-2.7
		c0,0-13.1,0-19.5,0h-8.8c-4.5,0-5,0-5-4.2V51.1c0-5.8,0-6,4.5-6h10.9c6.6,0,27.5,0.1,27.5,0.1l0-6.8h-55.1l0,48.3l0,52.1h55.1
		l0-6.8C236.9,131.9,216,132,209.4,132z"/>
	<path class="st0" d="M488.9,362.4h-5.6c-2.3,0-2.3-0.2-2.3-3.1v-16.2c0-2.2,0.2-2.2,2.6-2.2h4.5c3.3,0,10,0,10,0v-1.4v-1.4
		c0,0-6.8,0-10,0h-4.5c-2.3,0-2.6,0-2.6-2.2v-14.4c0-3,0-3.1,2.3-3.1h5.6c3.4,0,14.1,0,14.1,0l0-4.3h-28.4l0,25.4l0,27.1H503l0-4.3
		C503,362.3,492.3,362.4,488.9,362.4z"/>
	<path class="st0" d="M397.5,362.4h-5.6c-2.3,0-2.3-0.2-2.3-3.1v-16.2c0-2.2,0.2-2.2,2.6-2.2h4.5c3.3,0,10,0,10,0v-1.4v-1.4
		c0,0-6.8,0-10,0h-4.5c-2.3,0-2.6,0-2.6-2.2v-14.4c0-3,0-3.1,2.3-3.1h5.6c3.4,0,14.1,0,14.1,0l0-4.3h-28.4l0,25.4l0,27.1h28.4l0-4.3
		C411.7,362.3,401,362.4,397.5,362.4z"/>
	<path class="st0" d="M306.9,314.2h6.5v41c0,5-0.3,6.5,1.4,7c1.2,0.3,22.6,0.1,22.6,0.1v4.4c0,0-11.7-0.1-19.9-0.1h-7.4
		c-3.4,0-3.4-3.6-3.4-12L306.9,314.2L306.9,314.2L306.9,314.2z"/>
</g>
</svg>
